<?xml version="1.0" encoding="UTF-8" standalone="no"?>
<svg
   xmlns:i="&amp;#38;#38;ns_ai;"
   xmlns:dc="http://purl.org/dc/elements/1.1/"
   xmlns:cc="http://creativecommons.org/ns#"
   xmlns:rdf="http://www.w3.org/1999/02/22-rdf-syntax-ns#"
   xmlns:svg="http://www.w3.org/2000/svg"
   xmlns="http://www.w3.org/2000/svg"
   xmlns:xlink="http://www.w3.org/1999/xlink"
   xmlns:sodipodi="http://sodipodi.sourceforge.net/DTD/sodipodi-0.dtd"
   xmlns:inkscape="http://www.inkscape.org/namespaces/inkscape"
   version="1.1"
   width="1052.3622"
   height="744.09448"
   id="svg2"
   inkscape:version="0.48.5 r10040"
   sodipodi:docname="signs.pdf">
  <metadata
     id="metadata30">
    <rdf:RDF>
      <cc:Work
         rdf:about="">
        <dc:format>image/svg+xml</dc:format>
        <dc:type
           rdf:resource="http://purl.org/dc/dcmitype/StillImage" />
        <dc:title></dc:title>
      </cc:Work>
    </rdf:RDF>
  </metadata>
  <defs
     id="defs28" />
  <sodipodi:namedview
     pagecolor="#ffffff"
     bordercolor="#666666"
     borderopacity="1"
     objecttolerance="10"
     gridtolerance="10"
     guidetolerance="10"
     inkscape:pageopacity="0"
     inkscape:pageshadow="2"
     inkscape:window-width="1395"
     inkscape:window-height="1574"
     id="namedview26"
     showgrid="false"
     inkscape:zoom="0.65186406"
     inkscape:cx="666.06119"
     inkscape:cy="-125.52187"
     inkscape:window-x="1440"
     inkscape:window-y="552"
     inkscape:window-maximized="0"
     inkscape:current-layer="svg2" />
  <path
     d="m 741.00686,286.57171 82.93684,3e-5 58.64517,58.64531 -4e-5,82.93665 -58.64523,58.64531 -82.93684,0 -58.64516,-58.64531 4e-5,-82.93696 58.64522,-58.64503 z"
     id="path4"
     inkscape:connector-curvature="0" />
  <path
     d="m 742.30271,289.70029 80.34507,3e-5 56.81252,56.81258 -3e-5,80.34495 -56.81256,56.81262 -80.34507,0 -56.81251,-56.81262 3e-5,-80.34495 56.81255,-56.81261 z"
     id="path6"
     style="fill:#d40000"
     inkscape:connector-curvature="0" />
  <path
     d="m 783.50343,455.1947 c -24.62678,0 -47.90679,0 -47.90679,-65.69958 -0.0497,-59.44247 10.80521,-47.9829 15.96872,-43.11174 l 0.32947,-10.25883 c 0.2439,-7.59456 18.3002,-7.13654 18.31754,-1.14787 l 0.0441,-9.40661 c 0.0468,-9.95477 20.93546,-8.9491 21.10849,-2.34391 l 0.33619,12.833 c 0.19241,-7.23478 16.42536,-9.96756 16.90896,4.10622 0,21.89986 -0.19035,45.47381 -0.47998,52.4583 8.46546,9.38565 17.79568,-36.42447 34.14941,-28.01649 7.31108,7.62584 -21.16365,61.39782 -24.242,67.06832 -2.9391,5.41427 -16.0641,23.51919 -34.53418,23.51919 z"
     style="fill:#ffffff;stroke:#000000;stroke-width:6.25710249;stroke-linejoin:round"
     id="path14"
     inkscape:connector-curvature="0" />
  <path
     d="m 771.52525,326.92379 0,56.31392"
     style="fill:#ffffff;stroke:#000000;stroke-width:3.12855124"
     id="path16"
     inkscape:connector-curvature="0"
     sodipodi:nodetypes="cc" />
  <path
     d="m 789.90549,326.92379 0.39107,59.44247"
     style="fill:#ffffff;stroke:#000000;stroke-width:3.12855124"
     id="path18"
     inkscape:connector-curvature="0"
     sodipodi:nodetypes="cc" />
  <path
     d="m 799.68222,403.57329 c 0,0 -15.64276,3.12856 -21.89987,34.41407"
     style="fill:none;stroke:#000000;stroke-width:3.12855124px"
     id="path20"
     inkscape:connector-curvature="0" />
  <path
     d="m 752.75395,342.56655 0,47.31933"
     style="fill:#ffffff;stroke:#000000;stroke-width:3.12855124"
     id="path22"
     inkscape:connector-curvature="0"
     sodipodi:nodetypes="cc" />
  <path
     d="m 744.5415,396.14299 c 13.29634,-14.40448 38.71582,-13.75249 52.40323,-8.99459"
     style="fill:none;stroke:#000000;stroke-width:3.12855124px"
     id="path24"
     inkscape:connector-curvature="0"
     sodipodi:nodetypes="cc" />
  <path
     style="fill:none;stroke:none"
     d="M 33.121211,773.58099 C 182.33714,608.50011 701.31967,533.34149 923.18666,897.78241"
     id="path3026"
     inkscape:connector-curvature="0"
     sodipodi:nodetypes="cc" />
  <text
     xml:space="preserve"
     style="font-size:331.05014038px;font-style:normal;font-weight:normal;text-align:start;line-height:125%;letter-spacing:0px;word-spacing:0px;text-anchor:start;fill:#000000;fill-opacity:1;stroke:none;font-family:Sans"
     id="text3028"
     sodipodi:linespacing="125%"
     transform="translate(4.6021865,12.272497)"><textPath
       xlink:href="#path3039"
       startOffset="50%"
       id="textPath3047"
       style="font-size:40px;text-align:center;text-anchor:middle">Simon nicht da</textPath></text>
  <text
     xml:space="preserve"
     style="font-size:75.7857666px;font-style:normal;font-weight:normal;line-height:125%;letter-spacing:0px;word-spacing:0px;fill:#000000;fill-opacity:1;stroke:none;font-family:Sans"
     x="659.28882"
     y="561.18231"
     id="text3035"
     sodipodi:linespacing="125%"><tspan
       sodipodi:role="line"
       id="tspan3037"
       x="659.28882"
       y="561.18231"
       style="font-weight:bold;stroke:none;-inkscape-font-specification:Sans Bold">87826</tspan></text>
  <path
     style="fill:none;stroke:none"
     d="m 628.2589,331.47592 c 81.56181,-130.92817 227.51451,-128.78183 313.36905,5.3659"
     id="path3039"
     inkscape:connector-curvature="0"
     sodipodi:nodetypes="cc" />
  <style
     id="style3052"
     type="text/css">
	.st0{fill:#008000;}
	.st1{fill:#FFFFFF;}
	.st2{fill:#FFFFFF;stroke:#FFFFFF;stroke-width:2;stroke-linecap:round;stroke-linejoin:round;stroke-miterlimit:10;}
</style>
  <switch
     id="switch3054"
     transform="matrix(2.1838958,0,0,2.1838958,195.31655,287.43462)">
    <foreignObject
       id="foreignObject3056"
       height="1"
       width="1"
       y="0"
       x="0"
       requiredExtensions="http://ns.adobe.com/AdobeIllustrator/10.0/">
      <i:pgfRef
         xlink:href="#adobe_illustrator_pgf" />
    </foreignObject>
    <g
       id="g3058"
       i:extraneous="self">
      <circle
         id="circle3060"
         r="46"
         cy="50"
         cx="50"
         class="st0"
         sodipodi:cx="50"
         sodipodi:cy="50"
         sodipodi:rx="46"
         sodipodi:ry="46"
         style="fill:#008000"
         d="M 96,50 C 96,75.405098 75.405098,96 50,96 24.594902,96 4,75.405098 4,50 4,24.594902 24.594902,4 50,4 75.405098,4 96,24.594902 96,50 z" />
      <g
         id="g3062">
        <path
           id="path3064"
           d="m 32.8,50 0,0 c 0,-2.7 2.2,-4.9 4.9,-4.9 h 44 c 2.7,0 4.9,2.2 4.9,4.9 v 0 c 0,2.7 -2.2,4.9 -4.9,4.9 h -44 C 35,54.9 32.8,52.7 32.8,50 z"
           class="st1"
           inkscape:connector-curvature="0"
           style="fill:#ffffff" />
        <polygon
           id="polygon3066"
           points="13.5,50 25.2,42.8 37,35.5 37,50 37,64.5 25,57.2 "
           class="st2"
           style="fill:#ffffff;stroke:#ffffff;stroke-width:2;stroke-linecap:round;stroke-linejoin:round;stroke-miterlimit:10" />
      </g>
    </g>
  </switch>
</svg>
